<?php
	include_once("../../../__lib.includes/config.inc.php");
	$bene_data_all	= $willProfile->getWillBenDetails('will_beneficiary');
	?>

<form action="data_submit/frmForm.php" name="frmPf" id="frmPf" method="post" class="">
    <div class="agreement-row">
        <input type="hidden" name="form_id" value="4">
        <input class="" name="pf_process" id="pf_process" value="1" type="hidden">
        <input name="pln_id" id="pln_id" value="0" type="hidden">
        <input id="ppf_account_type_hidden" value="postoffice" type="hidden">
        <input name="is_adult" id="is_adult" value="0" type="hidden">
        <input name="btn_clicked" id="btn_clicked" value="next" type="hidden">
        <div>
            <div class="row">
                <div class="col-xs-12">
                    <div id="policyAddWrap">
                        <div>
                            <!-- do not delte this div -->
                            <h4>
                                            <strong class="mandatory_label">Is the PPF Account in Bank / Post Office? &nbsp;<span class="mandatory_star">*</span></strong>
                                            <span>
                                                <input value="bank" name="ppf_ownership" disabled="" type="radio"> Bank
                                                <input value="postoffice" name="ppf_ownership" checked="" type="radio"> Post Office
                                            </span>
                                        </h4>
                            <div id="bank">
                            </div>
                            <div id="postoffice">
                                <div class="postoffice">
                                    <h4><strong>Post Office - PPF Account</strong></h4>
                                    <div class="panel panel-body">
                                        <div class="row">
                                            <div class="col-xs-6">
                                                <label class="mandatory mandatory_label">Post Office Name <span class="mandatory_star">*</span></label>
                                                <input type="text" class="form-control" placeholder="Post Office Name" id="" name="post_office_name" value="" required>
                                            </div>
                                            <div class="col-xs-6">
                                                <label class="mandatory ">Account Number
                                                    <!-- <span class="mandatory_star">*</span> --></label>
                                                <br>
                                                <input class="form-control" placeholder="Account Number" name="post_account_number" value="" maxlength="18" data-validation="" data-validation-length="1-18" data-validation-error-msg="Please enter valid Account Number" title="Please enter Account Number" alt="Please enter Account Number" type="text">
                                            </div>
                                        </div>
                                        <div class="divider"></div>
                                        <div class="row">
                                            <div class="col-xs-4">
                                                <label class="mandatory ">Address Line1
                                                    <!-- <span class="mandatory_star">*</span> --></label>
                                                <input class="form-control" placeholder="Address Line1" name="address_line1" value="" title="Please enter Address Line1 of Post Office" alt="Please enter Address Line1 of Post Office" maxlength="60" data-validation="" data-validation-length="1-60" data-validation-error-msg="Please enter valid Address Line1 of Post Office" type="text">
                                            </div>
                                            <div class="col-xs-4">
                                                <label class="mandatory">Address Line2
                                                    <!-- <span class="mandatory_star">*</span> --></label>
                                                <input class="form-control" placeholder="Address Line2" name="address_line2" value="" title="Please enter Address Line2 of Post Office" alt="Please enter Address Line2 of Post Office" maxlength="60" data-validation="" data-validation-length="1-60" data-validation-error-msg="Please enter valid Address Line2 of Post Office" type="text">
                                            </div>
                                            <div class="col-xs-4">
                                                <label>Address Line3</label>
                                                <input class="form-control" placeholder="Address Line3" name="address_line3" value="" title="Please enter Address Line3 of Post Office" alt="Please enter Address Line3 of Post Office" maxlength="60" type="text">
                                            </div>
                                        </div>
                                        <div class="divider"></div>
                                        <div class="row">
                                            <div class="col-xs-3">
                                                <label class="mandatory">City / Village / Town
                                                    <!-- <span class="mandatory_star">*</span> --></label>
                                                <input class="form-control" placeholder="City / Village / Town" name="city_village_town" value="" title="Please enter City of Post Office" alt="Please enter City of Post Office" maxlength="60" data-validation="" data-validation-length="1-60" data-validation-error-msg="Please enter valid City / Village / Town of Post Office" type="text">
                                            </div>
                                            <div class="col-xs-2">
                                                <label class="mandatory">Pincode / ZipCode
                                                    <!-- <span class="mandatory_star">*</span> --></label>
                                                <input class="form-control numeric" placeholder="Pincode" name="zipcode" value="" title="Please enter Pincode / ZipCode of Post Office" alt="Please enter Pincode / ZipCode of Post Office" maxlength="6" type="text">
                                            </div>
                                            <div class="col-xs-2">
                                                <label class="mandatory">Country
                                                    <!-- <span class="mandatory_star">*</span> --></label>
                                                <select name="country" id="country" class="input-select form-control" title="Please select a country" alt="Please select a country" data-validation="" data-validation-length="1-33" data-validation-error-msg="Please select a Country." onchange="javascript: populate_states(this.value,'state', 'span_state','0', 'toggle_other_state(\'state\', \'span_other_state\')');">
                                                    <option value="102" selected="selected">India</option>
                                                </select>
                                            </div>
                                            <div class="col-xs-2">
                                                <label class="mandatory ">State
                                                    <!-- <span class="mandatory_star">*</span> --></label>
                                                <span id="span_state"><select name="state" id="state" class="input-select form-control" title="Please select appropriate State" alt="Please select appropriate State" data-validation="" data-validation-length="1-60" data-validation-error-msg="Please select a valid State"><option value="">Please Select</option><option value="35">Andaman and Nicobar Islands</option><option value="28">Andhra Pradesh</option><option value="12">Arunachal Pradesh</option><option value="18">Assam</option><option value="10">Bihar</option><option value="4">Chandigarh</option><option value="22">Chhattisgarh</option><option value="26">Dadra and Nagar Haveli</option><option value="25">Daman and Diu</option><option value="7">Delhi</option><option value="30">Goa</option><option value="24">Gujarat</option><option value="6">Haryana</option><option value="2">Himachal Pradesh</option><option value="1">Jammu and Kashmir</option><option value="20">Jharkhand</option><option value="29">Karnataka</option><option value="32">Kerala</option><option value="31">Lakshadweep</option><option value="23">Madhya Pradesh</option><option value="27">Maharashtra</option><option value="14">Manipur</option><option value="17">Meghalaya</option><option value="15">Mizoram</option><option value="13">Nagaland</option><option value="21">Odisha</option><option value="34">Puducherry</option><option value="3">Punjab</option><option value="8">Rajasthan</option><option value="11">Sikkim</option><option value="33">Tamil Nadu</option><option value="36">Telangana</option><option value="16">Tripura</option><option value="5">Uttarakhand</option><option value="9">Uttar Pradesh</option><option value="19">West Bengal</option></select></span>
                                            </div>
                                            <div class="col-xs-3">
                                                <span id="span_other_state" style="display:none;" validatemsg="Please enter Other State">
                                    <label class="cnd-mandatory">Other State (If not listed) <!-- <span class="mandatory_star">*</span> --></label>
                                                <input name="state_other" id="state_other" class="form-control" value="" placeholder="Other state" maxlength="60" title="Please enter Other State" alt="Please enter Other State" type="text">
                                                </span>
                                            </div>
                                        </div>
                                    </div>
                                    <!-- panel-body END -->
                                </div>
                                <!-- postoffice END -->
                            </div>
                            <input name="has_nominee" value="no" type="hidden">
                            <div id="guardiant_main">
                            </div>
                            <div id="div_beneficiary">
                                <div id="div_beneficiary_1">
                                    <h4>
                                    <strong>Beneficiaries</strong>
                                </h4>
                                    <div class="panel panel-body sub-panel">
                                        <div class="row">
                                            <div class="col-xs-4">
                                                <label class="mandatory mandatory_label">Beneficiary <span class="mandatory_star">*</span></label>
                                                <select name="sel_beneficiary" id="sel_beneficiary" class="input-select form-control" title="Please select a Beneficiary" alt="Please select a Beneficiary" required>
                                                    <option value="">Please select</option>
                                                    <option value="5527">Sonu Jangra </option>
                                                </select>
                                            </div>
                                            <div class="col-xs-4">
                                                <label class="mandatory mandatory_label">Percentage Share to be allotted <span class="mandatory_star">*</span></label>
                                                <input class="form-control numeric_share" name="txt_beneficiary_share" id="txt_beneficiary_share" placeholder="Percentage Share to be allotted" maxlength="5" title="Please enter Percentage Share to be allotted" alt="Please enter Percentage Share to be allotted" value="" type="text">
                                            </div>
                                            <div class="col-xs-4">
                                                <label class="mandatory">Any Other Information</label>
                                                <input class="form-control" name="txt_other_info" id="txt_other_info" maxlength="200" placeholder="Any Other Information" title="Please enter Any Other Information" alt="Please enter Any Other Information" value="" type="text">
                                            </div>
                                        </div>
                                        <div>
                                            <br><span id="span_beneficiary_1"><a href="javascript:void(0);" alt="Add Beneficiary" title="Add Beneficiary" id="beneficiaryAddBtnNew" class="btn btn-primary btn-sm btn-add-large a_beneficiarynew">+ Add Beneficiary</a></span></div>
                                        <br>
                                        <table class="table table-striped">
                                            <thead>
                                                <tr>
                                                    <th>#</th>
                                                    <th>Name</th>
                                                    <th>Relation</th>
                                                    <th>Share</th>
                                                    <th><a href="" class="btn btn-danger">Reset all</a></th>
                                                </tr>
                                            </thead>
                                            <tbody id="tb_con_ben">
                                                <tr id="no_beneficiary">
                                                    <td colspan="5"></td>
                                                </tr>
                                                <input name="tot_ben" id="tot_ben" value="1" type="hidden">
                                                <input id="total_share" value="0" type="hidden">
                                            </tbody>
                                        </table>
                                    </div>
                                </div>
                            </div>
                        </div>
                    </div>
                    <!-- policyAddWrap END -->
                    <p>&nbsp;</p>
                    <div class="bottom_buttons ">
                        <div class="div_prev_button">
                            <input name="previous" id="btn-previous" value="« Prev" title="Click here to go on Previous page" alt="Click here to go on Previous page" class="btn-submit btn-move" next_page="fixed-deposit-details" type="button">
                        </div>
                        <div class="div_center_buttons">
                            <input name="add_ppf" id="btn-add" value="Add / Save" title="Click here to Add / Save the entered data" alt="Click here to Add / Save the entered data" class="btn-submit " type="submit">
                            <input name="update" id="btn-update" value="Update" title="Click here to Update the changed data" alt="Click here to Update the changed data" class="btn-submit btn-submit-disabled" disabled="" type="submit">
                        </div>
                        <div class="div_next_button" style="text-align: right;">
                            <input name="next" id="btn-next" value="Next »" title="Click here to go to Next page" alt="Click here to go to Next page" class="btn-submit btn-move" next_page="stocks-bonds-details" type="button">
                        </div>
                        <br>
                        <br>
                        <br>
                    </div>
                </div>
                <!-- col-xs-12 END -->
            </div>
            <!-- row END -->
            <div class="row">
                <input name="txt_other_submit" id="txt_other_submit" value="0" type="hidden">
                <input name="txt_redirect_page" id="txt_redirect_page" value="" type="hidden">
                <input name="sumbit" value="Submit" class="btn-submit btn-submit-disabled" title="Submit Button will be enabled after completion of compulsory tabs marked with top orange border" alt="Submit Button will be enabled after completion of compulsory tabs marked with top orange border" disabled="" type="submit"> </div>
        </div>
        <div id="div_nominee_detail_hidden" class="hide">
            <div class="panel panel-body sub-panel">
                <div class="row">
                    <div class="col-xs-12">
                        <label class="mandatory mandatory_label">Nominee Details <span class="mandatory_star">*</span> </label>
                        <div class="row">
                            <div class="col-xs-3">
                                <select name="end_title" id="end_title" class="input-select form-control" title="Please select Nominee Title" alt="Please select Nominee Title" data-validation="length" data-validation-length="1-3" data-validation-error-msg="Please select valid Nominee Title" onchange="javascript: title_change();">
                                    <option value="">Title</option>
                                    <option value="1">Mr.</option>
                                    <option value="2">Mrs.</option>
                                    <option value="3">Ms.</option>
                                    <option value="10">Master</option>
                                    <option value="23">Kumar</option>
                                    <option value="24">Kumari</option>
                                </select>
                            </div>
                            <div class="col-xs-3">
                                <input class="form-control" placeholder="Last Name / Surname" name="end_lastname" value="" maxlength="33" data-validation="length" data-validation-length="1-33" data-validation-error-msg="Please enter valid Nominee Last Name / Surname" title="Please enter Nominee Last Name / Surname" alt="Please enter Nominee Last Name / Surname" type="text">
                            </div>
                            <div class="col-xs-3">
                                <input class="form-control" placeholder="First Name" name="end_firstname" value="" maxlength="33" title="Please enter Nominee First Name" alt="Please enter Nominee First Name" type="text">
                            </div>
                            <div class="col-xs-3">
                                <input class="form-control" placeholder="Middle Name" name="end_middlename" value="" maxlength="33" title="Please enter Nominee Middle Name" alt="Please enter Nominee Middle Name" type="text">
                            </div>
                        </div>
                    </div>
                </div>
                <div class="divider"></div>
                <div class="row">
                    <div class="col-xs-3">
                        <label class="mandatory mandatory_label">Date of Birth <span class="mandatory_star">*</span></label>
                        <input id="show_birth_date" class="form-control" value="" placeholder="Birth date" readonly="" title="Please select Nominee Birth date" alt="Please select Nominee Birth date" maxlength="10" data-validation="" data-validation-length="1-10" data-validation-error-msg="Please select valid Nominee Birth date" type="text">
                        <input name="end_birth_date" id="birth_date" class="form-control" value="0000-00-00" placeholder="Birth date" type="hidden">
                    </div>
                    <div class="col-xs-1 reg-date">
                        <label>&nbsp;</label> OR
                    </div>
                    <div class="col-xs-3">
                        <label class="cnd-mandatory mandatory_label">Adult / Minor <span class="mandatory_star">*</span></label>
                        <select class="input-select form-control" id="end_is_adult" name="end_is_adult" title="If you don't remember Date of Birth, please select appropriate age status from the dropdown list" alt="If you don't remember Date of Birth, please select appropriate age status from the dropdown list">
                            <option value="1" selected="">Adult</option>
                            <option value="0">Minor</option>
                        </select>
                    </div>
                    <!-- <div class="col-xs-4">
                                <label class="mandatory">Is this Address a Foreign Address?</label><br>
                                <input type="checkbox" class="is_foreign_address" name="end_is_foreign_address" id="end_is_foreign_address" value="1" title='Please select if it is a foreign address' alt='Please select if it is a foreign address' changezip="end_zipcode" country="end_country" state="end_state" span_country="span_end_country" span_state="span_end_state" other_state="span_end_state_other"  />
                            </div> -->
                </div>
                <div class="divider"></div>
                <div class="row">
                    <div class="col-xs-6">
                        &nbsp;&nbsp;&nbsp;
                        <input class="nominee_same_per_address" name="nominee_is_same_as_permanent" value="P" id="nominee_is_same_as_permanent" account_count="" for_address="nominee_permanent" title="Select if is this Address same as your Permanent Address?" alt="Select if is this Address same as your Permanent Address?" disabled="" type="checkbox">&nbsp;&nbsp;&nbsp;
                        <label class="mandatory">Is this Address same as your Permanent Address?</label>
                    </div>
                    <div class="col-xs-6">
                        &nbsp;&nbsp;&nbsp;
                        <input class="nominee_same_per_address" name="nominee_is_same_as_correspondence" value="C" id="nominee_is_same_as_correspondence" account_count="" for_address="nominee_permanent" title="Select if is this Address same as your Correspondence Address?" alt="Select if is this Address same as your Correspondence Address?" disabled="" type="checkbox">&nbsp;&nbsp;&nbsp;
                        <label class="mandatory">Is this Address same as your Correspondence Address?</label>
                    </div>
                </div>
                <div class="row" style="display:none;">
                    <div class="col-xs-6">
                        &nbsp;&nbsp;&nbsp;
                        <input name="end_nom_addr_copied_from" id="end_nom_addr_copied_from" value="" type="hidden">
                    </div>
                </div>
                <div class="divider"></div>
                <div id="populate_nominee_permanent_address">
                    <div class="row">
                        <div class="col-xs-6">
                            &nbsp;&nbsp;&nbsp;
                            <input name="end_is_foreign_address" class="is_foreign_address" id="end_is_foreign_address" value="1" title="Select if Nominee resides outside India" alt="Select if Nominee resides outside India" changezip="end_zipcode" country="end_country" state="end_state" span_country="span_end_country" span_state="span_end_state" other_state="span_end_state_other" other_state_txt="end_state_other" type="checkbox">&nbsp;&nbsp;&nbsp;
                            <label class="mandatory">Is this Address a Foreign Address?</label>
                        </div>
                    </div>
                    <div class="divider"></div>
                    <div class="row">
                        <div class="col-xs-4">
                            <label class="mandatory mandatory_label">Address Line1 <span class="mandatory_star">*</span></label>
                            <input class="form-control" placeholder="Address Line1" name="end_address_line1" id="end_address_line1" value="" title="Please enter Address Line1 for Nominee address" alt="Please enter Address Line1 for Nominee address" maxlength="60" data-validation="length" data-validation-length="1-60" data-validation-error-msg="Please enter valid Address Line1 for Nominee address" type="text">
                        </div>
                        <div class="col-xs-4">
                            <label class="mandatory mandatory_label">Address Line2 <span class="mandatory_star">*</span></label>
                            <input class="form-control" placeholder="Address Line2" name="end_address_line2" id="end_address_line2" value="" title="Please enter Address Line2 for Nominee address" alt="Please enter Address Line2 for Nominee address" maxlength="60" data-validation="length" data-validation-length="1-60" data-validation-error-msg="Please enter valid Address Line2 for Nominee address" type="text">
                        </div>
                        <div class="col-xs-4">
                            <label>Address Line3</label>
                            <input class="form-control" placeholder="Address Line3" name="end_address_line3" id="end_address_line3" value="" title="Please enter Address Line3 for Nominee address" alt="Please enter Address Line3 for Nominee address" maxlength="60" type="text">
                        </div>
                    </div>
                    <div class="divider"></div>
                    <div class="row">
                        <div class="col-xs-3">
                            <label class="mandatory_label">City / Village / Town <span class="mandatory_star">*</span></label>
                            <input class="form-control" placeholder="City / Village / Town" name="end_city_village_town" id="end_city_village_town" value="" title="Please enter City / Village / Town for Nominee address" alt="Please enter City / Village / Town for Nominee address" maxlength="60" data-validation="length" data-validation-length="1-60" data-validation-error-msg="Please enter valid City / Village / Town for Nominee address" type="text">
                        </div>
                        <div class="col-xs-2">
                            <label class="mandatory mandatory_label">Pincode / ZipCode <span class="mandatory_star">*</span></label>
                            <input class="form-control numeric" id="end_zipcode" placeholder="Pincode" name="end_zipcode" value="" maxlength="6" data-validation="length" data-validation-length="6-6" data-validation-error-msg="Please enter valid Pincode for Nominee address" title="Please enter Pincode / Zipcode for Nominee address" alt="Please enter Pincode / Zipcode for Nominee address" type="text">
                        </div>
                        <div class="col-xs-2">
                            <label class="mandatory mandatory_label">Country <span class="mandatory_star">*</span></label>
                            <span id="span_end_country">
                                    <select name="end_country" id="end_country" class="input-select form-control select-country-list" title="Please select a Country for Nominee address" alt="Please select a Country for Nominee address" data-validation="length" data-validation-length="1-33" data-validation-error-msg="Please select a Country for Nominee address" other_state_txt="end_state_other" onchange="javascript: populate_states(this.value,'end_state', 'span_end_state', '0', 'toggle_other_state(\'end_state\', \'end_state_other\')'); toggle_other_state_country(this.value, 'end_state_other'); toggle_other_state('end_state', 'span_end_state_other');"><option value="102" selected="selected">India</option></select>                                </span></div>
                        <div class="col-xs-2">
                            <label class="mandatory mandatory_label">State <span class="mandatory_star">*</span></label>
                            <span id="span_end_state"></span>
                        </div>
                        <div class="col-xs-3">
                            <span id="span_end_state_other" style="display:none;" validatemsg="Please enter Other State for Nominee address">
                                    <label class="cnd-mandatory mandatory_label">Other State (If not listed) <span class="mandatory_star">*</span></label>
                            <input name="end_state_other" id="end_state_other" class="form-control" value="" placeholder="Other state" maxlength="60" titlt="Please enter Other State for Nominee address" alt="Please enter Other State for Nominee address" type="text">
                            </span>
                        </div>
                    </div>
                </div>
                <div class="divider"></div>
                <div class="row">
                    <div class="col-xs-6">
                        <label class="mandatory">Telephone Number </label>
                        <div id="TelephoneAddWrap">
                            <div class="row">
                                <div class="col-xs-plus">
                                    <span class="plus_sign">+</span>
                                </div>
                                <div class="col-xs-2">
                                    <input class="form-control numeric" name="end_phone_isd[]" placeholder="ISD" maxlength="3" title="Please enter Nominee Telephone ISD" alt="Please enter Nominee Telephone ISD" value="91" type="text">
                                </div>
                                <div class="col-xs-3">
                                    <input class="form-control numeric" name="end_phone_std[]" placeholder="STD" maxlength="5" title="Please enter Nominee Telephone STD" alt="Please enter Nominee Telephone STD" type="text">
                                </div>
                                <div class="col-xs-5 last">
                                    <input class="form-control numeric" name="end_phone_number[]" placeholder="Phone Number" maxlength="10" title="Please enter Nominee Telephone number" alt="Please enter Nominee Telephone number" type="text">
                                </div>
                                <a href="javascript:void(0);" class="btn-add" id="TelephoneAddBtn" title="Please click to enter additional Telephone Numbers" alt="Please click to enter additional Telephone Numbers">+</a>
                                <input id="num_phone_numbers" value="1" type="hidden">
                            </div>
                        </div>
                    </div>
                    <div class="col-xs-6">
                        <label class="mandatory">Mobile Number</label>
                        <div id="MobileAddWrap">
                            <div class="row">
                                <div class="col-xs-plus">
                                    <span class="plus_sign">+</span>
                                </div>
                                <div class="col-xs-2">
                                    <input class="form-control numeric" name="end_mobile_isd[]" placeholder="ISD" maxlength="3" value="91" data-validation-length="1-3" data-validation-error-msg="Please enter valid Nominee Mobile ISD" title="Please enter Nominee Mobile ISD" alt="Please enter Nominee Mobile ISD" type="text">
                                </div>
                                <div class="col-xs-8 last">
                                    <input class="form-control numeric" name="end_mobile_number[]" placeholder="Mobile Number" maxlength="10" data-validation-length="1-10" data-validation-error-msg="Please enter valid Nominee Mobile number" title="Please enter Nominee Mobile number" alt="Please enter Nominee Mobile number" type="text">
                                </div>
                                <a href="javascript:void(0);" class="btn-add" id="MobileAddBtn" title="Please click to enter additional Mobile Numbers" alt="Please click to enter additional Mobile Numbers">+</a>
                                <input id="num_mobile_numbers" value="1" type="hidden">
                            </div>
                        </div>
                    </div>
                </div>
                <div class="divider"></div>
                <div class="row">
                    <div class="col-xs-6">
                        <label class="mandatory">Email </label>
                        <div id="EmailAddWrap">
                            <div class="row">
                                <div class="col-xs-11 last">
                                    <input class="form-control" name="end_email[]" placeholder="Email" maxlength="254" data-validation-length="1-254" data-validation-error-msg="Please enter valid Nominee Email" title="Please enter Nominee Email" alt="Please enter Nominee Email" type="text">
                                </div>
                                <a href="#" class="btn-add" id="EmailAddBtn" title="Please click to enter additional email IDs" alt="Please click to enter additional email IDs">+</a>
                                <input id="num_emails" value="1" type="hidden">
                            </div>
                        </div>
                    </div>
                </div>
            </div>
            <!-- panel-body END -->
        </div>
        <div id="guardiant_main_hidden" class="hide">
            <div id="fdJoinGuardiantAddWrap">
                <h3>Add Guardian</h3>
                <p class="note">
                    Note: Only requires to fill below information under these one conditions:
                    <br> 1. If the Nominee is less than 18 years of age, the details of the Guardian have to be captured
                </p>
                <div class="panel panel-body sub-panel">
                    <div class="row">
                        <div class="col-xs-12">
                            <label class="mandatory mandatory_label">Guardian Details <span class="mandatory_star">*</span></label>
                            <div class="row">
                                <div class="col-xs-3">
                                    <select name="end_guardian_title" id="end_guardian_title" class="input-select form-control" title="Please select guardian Title" alt="Please select guardian Title" data-validation="length" data-validation-length="1-3" data-validation-error-msg="Please select valid guardian Title" onchange="javascript: title_change();">
                                        <option value="">Title</option>
                                        <option value="1">Mr. </option>
                                        <option value="2">Mrs. </option>
                                        <option value="3">Ms. </option>
                                    </select>
                                </div>
                                <div class="col-xs-3">
                                    <input class="form-control" placeholder="Last Name / Surname" name="end_guardian_lastname" value="" title="Please enter guardian Last Name / Surname" alt="Please enter guardian Last Name / Surname" maxlength="33" data-validation="length" data-validation-length="1-33" data-validation-error-msg="Please enter valid guardian Last Name / Surname" type="text">
                                </div>
                                <div class="col-xs-3">
                                    <input class="form-control" placeholder="First Name" name="end_guardian_firstname" value="" title="Please enter guardian First Name" alt="Please enter guardian First Name" maxlength="33" type="text">
                                </div>
                                <div class="col-xs-3">
                                    <input class="form-control" placeholder="Middle Name" name="end_guardian_middlename" value="" title="Please enter guardian Middle Name" alt="Please enter guardian Middle Name" maxlength="33" type="text">
                                </div>
                            </div>
                        </div>
                    </div>
                    <div class="divider"></div>
                    <div class="row">
                        <div class="col-xs-3">
                            <label class="mandatory mandatory_label">Date of Birth <span class="mandatory_star">*</span></label>
                            <input class="form-control" id="show_guardian_birth_date" value="" placeholder="Birth date" readonly="" title="Please select guardian Birth date" alt="Please select guardian Birth date" type="text">
                            <input class="form-control" id="guardian_birth_date" placeholder="Date" name="end_guardian_birth_date" value="0000-00-00" type="hidden">
                        </div>
                        <div class="col-xs-3 reg-date">
                            <label>OR </label> &nbsp;
                            <input name="end_guardian_is_adult" id="end_guardian_is_adult" value="1" title="If you don't remember Date of Birth, please select if Guardian is adult" alt="If you don't remember Date of Birth, please select if Guardian is adult" type="checkbox"> <span class="mandatory_label"> Guardian is Adult </span> <span class="mandatory_star">*</span>
                        </div>
                    </div>
                    <!-- <div class="col-xs-4">
                                    <label class="mandatory">Is this Address a Foreign Address?</label><br>
                                    <input type="checkbox" class="is_foreign_address" name="end_guardian_is_foreign_address" id="end_guardian_is_foreign_address" value="1" title='Please select if its a foreign address'  alt='Please select if its a foreign address' changezip="end_guardian_zipcode" country="end_guardian_country" state="end_guardian_state" span_country="span_end_guardian_country" span_state="span_end_guardian_state" other_state="span_end_guardian_state_other" title="Please select if it is a foreign address" alt="Please select if it is a foreign address"/>
                                </div> -->
                    <div class="divider"></div>
                    <div class="row">
                        <div class="col-xs-6">
                            &nbsp;&nbsp;&nbsp;
                            <input class="nominee_guardian_same_per_address" name="guardian_nominee_is_same_as_permanent" value="P" id="guardian_nominee_is_same_as_permanent" account_count="" for_address="nominee_guardian" title="Select if is this Address same as your Permanent Address?" alt="Select if is this Address same as your Permanent Address?" disabled="" type="checkbox">&nbsp;&nbsp;&nbsp;
                            <label class="mandatory">Is this Address same as your Permanent Address?</label>
                        </div>
                        <div class="col-xs-6">
                            &nbsp;&nbsp;&nbsp;
                            <input class="nominee_guardian_same_per_address" name="guardian_nominee_is_same_as_correspondence" value="C" id="guardian_nominee_is_same_as_correspondence" account_count="" for_address="nominee_guardian" title="Select if is this Address same as your Correspondence Address?" alt="Select if is this Address same as your Correspondence Address?" disabled="" type="checkbox">&nbsp;&nbsp;&nbsp;
                            <label class="mandatory">Is this Address same as your Correspondence Address?</label>
                        </div>
                    </div>
                    <div class="row" style="display:none;">
                        <div class="col-xs-6">
                            &nbsp;&nbsp;&nbsp;
                            <input name="end_guardian_addr_copied_from" id="end_guardian_addr_copied_from" value="" type="hidden">
                        </div>
                    </div>
                    <div class="divider"></div>
                    <div id="populate_nominee_guardian_address">
                        <div class="row">
                            <div class="col-xs-4">
                                &nbsp;&nbsp;&nbsp;
                                <input class="is_foreign_address" name="end_guardian_is_foreign_address" id="end_guardian_is_foreign_address" value="1" title="Please select if its a foreign address" alt="Please select if its a foreign address" changezip="end_guardian_zipcode" country="end_guardian_country" state="end_guardian_state" span_country="span_end_guardian_country" span_state="span_end_guardian_state" other_state="span_end_guardian_state_other" other_state_txt="end_guardian_state_other" type="checkbox">&nbsp;&nbsp;&nbsp;
                                <label class="mandatory">Is this Address a Foreign Address?</label>
                            </div>
                        </div>
                        <div class="divider"></div>
                        <div class="row">
                            <div class="col-xs-4">
                                <label class="mandatory mandatory_label">Address Line1 <span class="mandatory_star">*</span></label>
                                <input class="form-control" placeholder="Address Line1" name="end_guardian_address_line1" id="end_guardian_address_line1" value="" title="Please enter Address Line1 for guardian address" alt="Please enter Address Line1 for guardian address" maxlength="60" data-validation="length" data-validation-length="1-60" data-validation-error-msg="Please enter valid Address Line1 for guardian address" type="text">
                            </div>
                            <div class="col-xs-4">
                                <label class="mandatory mandatory_label">Address Line2 <span class="mandatory_star">*</span></label>
                                <input class="form-control" placeholder="Address Line2" name="end_guardian_address_line2" id="end_guardian_address_line2" value="" title="Please enter Address Line2 for guardian address" alt="Please enter Address Line2 for guardian address" maxlength="60" data-validation="length" data-validation-length="1-60" data-validation-error-msg="Please enter valid Address Line2 for guardian address" type="text">
                            </div>
                            <div class="col-xs-4">
                                <label>Address Line3</label>
                                <input class="form-control" placeholder="Address Line3" name="end_guardian_address_line3" id="end_guardian_address_line3" value="" title="Please enter Address Line3 for guardian address" alt="Please enter Address Line3 for guardian address" maxlength="60" type="text">
                            </div>
                        </div>
                        <div class="divider"></div>
                        <div class="row">
                            <div class="col-xs-3">
                                <label class="mandatory_label">City / Village / Town <span class="mandatory_star">*</span></label>
                                <input class="form-control" placeholder="City / Village / Town" name="end_guardian_city_village_town" id="end_guardian_city_village_town" value="" title="Please enter City / Village / Town for guardian address" alt="Please enter City / Village / Town for guardian address" maxlength="60" data-validation="length" data-validation-length="1-60" data-validation-error-msg="Please enter valid City / Village / Town for guardian address" type="text">
                            </div>
                            <div class="col-xs-2">
                                <label class="mandatory mandatory_label">Pincode / ZipCode <span class="mandatory_star">*</span></label>
                                <input class="form-control numeric" id="end_guardian_zipcode" placeholder="Pincode" name="end_guardian_zipcode" value="" maxlength="6" data-validation="length" data-validation-length="6-6" data-validation-error-msg="Please enter valid Pincode for guardian address" title="Please enter Pincode / Zipcode for guardian address" alt="Please enter Pincode / Zipcode for guardian address" type="text">
                            </div>
                            <div class="col-xs-2">
                                <label class="mandatory mandatory_label">Country <span class="mandatory_star">*</span></label>
                                <span id="span_end_guardian_country">
                                        <select name="end_guardian_country" id="end_guardian_country" class="input-select form-control select-country-list" title="Please select a Country for guardian address" alt="Please select a Country for guardian address" data-validation="length" data-validation-length="1-33" data-validation-error-msg="Please select a valid Country for guardian address" other_state_txt="end_guardian_state_other" onchange="javascript: populate_states(this.value,'end_guardian_state', 'span_guardian_permanent_state', '0', 'toggle_other_state(\'end_guardian_state\', \'guardian_permanent_span_other_state\')'); toggle_other_state_country(this.value, 'guardian_permanent_span_other_state');;"><option value="102" selected="selected">India</option></select>                                  </span></div>
                            <div class="col-xs-2">
                                <label class="mandatory mandatory_label">State <span class="mandatory_star">*</span></label>
                                <span id="span_end_guardian_state"></span>
                            </div>
                            <div class="col-xs-3">
                                <span id="span_end_guardian_state_other" style="display:none;" validatemsg="Please enter Other State for guardian address">
                                            <label class="cnd-mandatory mandatory_label">Other state <span class="mandatory_star">*</span></label>
                                <input name="end_guardian_state_other" id="end_guardian_state_other" class="form-control" value="" placeholder="Other state" maxlength="60" title="Please enter Other State for guardian address" alt="Please enter Other State for guardian address" type="text">
                                </span>
                            </div>
                        </div>
                    </div>
                    <div class="divider"></div>
                    <div class="row">
                        <div class="col-xs-6">
                            <label class="mandatory">Telephone Number </label>
                            <div id="TelephoneAddWrap2">
                                <div class="row">
                                    <div class="col-xs-plus">
                                        <span class="plus_sign">+</span>
                                    </div>
                                    <div class="col-xs-2">
                                        <input class="form-control numeric" name="end_guardian_phone_isd[]" placeholder="ISD" maxlength="3" value="91" title="Please enter guardian Telephone ISD" alt="Please enter guardian Telephone ISD" type="text">
                                    </div>
                                    <div class="col-xs-3">
                                        <input class="form-control numeric" name="end_guardian_phone_std[]" placeholder="STD" maxlength="5" title="Please enter guardian Telephone STD" alt="Please enter guardian Telephone STD" type="text">
                                    </div>
                                    <div class="col-xs-5 last">
                                        <input class="form-control numeric" name="end_guardian_phone_number[]" placeholder="Phone Number" maxlength="10" title="Please enter guardian Telephone number" alt="Please enter guardian Telephone number" type="text">
                                    </div>
                                    <a href="javascript:void(0);" class="btn-add" id="TelephoneAddBtn2" title="Please click to enter additional Telephone Numbers" alt="Please click to enter additional Telephone Numbers">+</a>
                                    <input id="guardian_num_phone_numbers" value="1" type="hidden">
                                </div>
                            </div>
                        </div>
                        <div class="col-xs-6">
                            <label class="mandatory">Mobile Number </label>
                            <div id="MobileAddWrap2">
                                <div class="row">
                                    <div class="col-xs-plus">
                                        <span class="plus_sign">+</span>
                                    </div>
                                    <div class="col-xs-2">
                                        <input class="form-control numeric" name="end_guardian_mobile_isd[]" placeholder="ISD" value="91" maxlength="3" title="Please enter guardian Mobile ISD" alt="Please enter guardian Mobile ISD" data-validation-length="1-3" data-validation-error-msg="Please enter valid guardian Mobile ISD" type="text">
                                    </div>
                                    <div class="col-xs-8 last">
                                        <input class="form-control numeric" name="end_guardian_mobile_number[]" placeholder="Mobile Number" maxlength="10" title="Please enter guardian Mobile number" alt="Please enter guardian Mobile number" data-validation-length="1-10" data-validation-error-msg="Please enter valid guardian Mobile number" type="text">
                                    </div>
                                    <a href="javascript:void(0);" class="btn-add" id="MobileAddBtn2" title="Please click to enter additional Mobile Numbers" alt="Please click to enter additional Mobile Numbers">+</a>
                                    <input id="guardian_num_mobile_numbers" value="1" type="hidden">
                                </div>
                            </div>
                        </div>
                    </div>
                    <div class="divider"></div>
                    <div class="row">
                        <div class="col-xs-6">
                            <label class="mandatory">Email </label>
                            <div id="EmailAddWrap2">
                                <div class="row">
                                    <div class="col-xs-11 last">
                                        <input class="form-control" name="end_guardian_email[]" placeholder="Email" title="Please enter guardian Email" alt="Please enter guardian Email" maxlength="254" data-validation-length="1-254" data-validation-error-msg="Please enter valid guardian Email" type="text">
                                    </div>
                                    <a href="javascript:void(0);" class="btn-add" id="EmailAddBtn2" title="Please click to enter additional email IDs" alt="Please click to enter additional email IDs">+</a>
                                    <input id="guardian_num_emails" value="1" type="hidden">
                                </div>
                            </div>
                        </div>
                    </div>
                </div>
                <!-- panel-body END -->
            </div>
        </div>
    </div>
</form>
<select name="end_state" id="end_state" class="input-select form-control" title="Please select a State for Nominee address" alt="Please select a State for Nominee address" data-validation="length" data-validation-length="1-33" data-validation-error-msg="Please select a valid State for Nominee address" onchange="javascript: toggle_other_state('end_state', 'span_end_state_other');">
    <option value="">Please Select</option>
    <option value="35">Andaman and Nicobar Islands</option>
    <option value="28">Andhra Pradesh</option>
    <option value="12">Arunachal Pradesh</option>
    <option value="18">Assam</option>
    <option value="10">Bihar</option>
    <option value="4">Chandigarh</option>
    <option value="22">Chhattisgarh</option>
    <option value="26">Dadra and Nagar Haveli</option>
    <option value="25">Daman and Diu</option>
    <option value="7">Delhi</option>
    <option value="30">Goa</option>
    <option value="24">Gujarat</option>
    <option value="6">Haryana</option>
    <option value="2">Himachal Pradesh</option>
    <option value="1">Jammu and Kashmir</option>
    <option value="20">Jharkhand</option>
    <option value="29">Karnataka</option>
    <option value="32">Kerala</option>
    <option value="31">Lakshadweep</option>
    <option value="23">Madhya Pradesh</option>
    <option value="27">Maharashtra</option>
    <option value="14">Manipur</option>
    <option value="17">Meghalaya</option>
    <option value="15">Mizoram</option>
    <option value="13">Nagaland</option>
    <option value="21">Odisha</option>
    <option value="34">Puducherry</option>
    <option value="3">Punjab</option>
    <option value="8">Rajasthan</option>
    <option value="11">Sikkim</option>
    <option value="33">Tamil Nadu</option>
    <option value="36">Telangana</option>
    <option value="16">Tripura</option>
    <option value="5">Uttarakhand</option>
    <option value="9">Uttar Pradesh</option>
    <option value="19">West Bengal</option>
</select>
</span>
<select name="end_guardian_state" id="end_guardian_state" class="input-select form-control" title="Please select a State for guardian address" alt="Please select a State for guardian address" data-validation="length" data-validation-length="1-33" data-validation-error-msg="Please select a valid State for guardian address" onchange="javascript: toggle_other_state('end_guardian_state', 'span_end_guardian_state_other');">
    <option value="">Please Select</option>
    <option value="35">Andaman and Nicobar Islands</option>
    <option value="28">Andhra Pradesh</option>
    <option value="12">Arunachal Pradesh</option>
    <option value="18">Assam</option>
    <option value="10">Bihar</option>
    <option value="4">Chandigarh</option>
    <option value="22">Chhattisgarh</option>
    <option value="26">Dadra and Nagar Haveli</option>
    <option value="25">Daman and Diu</option>
    <option value="7">Delhi</option>
    <option value="30">Goa</option>
    <option value="24">Gujarat</option>
    <option value="6">Haryana</option>
    <option value="2">Himachal Pradesh</option>
    <option value="1">Jammu and Kashmir</option>
    <option value="20">Jharkhand</option>
    <option value="29">Karnataka</option>
    <option value="32">Kerala</option>
    <option value="31">Lakshadweep</option>
    <option value="23">Madhya Pradesh</option>
    <option value="27">Maharashtra</option>
    <option value="14">Manipur</option>
    <option value="17">Meghalaya</option>
    <option value="15">Mizoram</option>
    <option value="13">Nagaland</option>
    <option value="21">Odisha</option>
    <option value="34">Puducherry</option>
    <option value="3">Punjab</option>
    <option value="8">Rajasthan</option>
    <option value="11">Sikkim</option>
    <option value="33">Tamil Nadu</option>
    <option value="36">Telangana</option>
    <option value="16">Tripura</option>
    <option value="5">Uttarakhand</option>
    <option value="9">Uttar Pradesh</option>
    <option value="19">West Bengal</option>
</select>
</span>
