<form action="data_submit/frmForm.php" name="frmSplCause" id="frmSplCause" method="post" class="frmCurrent has-validation-callback">
<div class="agreement-row">
			<div class="container">
                				<div class="row">
										<div class="col-xs-12">
                    	<h4><strong>Special Instructions </strong></h4>
                        <div class="panel panel-body">
						  </div>
                    </div>
				</div><!-- Listing END -->
			</div>
                <input name="auth_token" id="auth_token_name" value="TVRBekxqVTFMakUyT0M0eE5UWnRiek15WWpkbmNHODJNamhsWkdZeWFtcG1hbWMxWlhZeE13PT0=" type="hidden">
                <input name="btn_clicked" id="btn_clicked" value="next" type="hidden">
            	<div class="container">
				<div class="row">
					<div class="col-xs-12 tab-btn">
						<a href="https://www.ezeewill.com/contingency-special-clause" next_page="contingency-special-clause" canadd="1" tabname="contigency" class="">Contingent Beneficiary</a>
						<a href="https://www.ezeewill.com/special-clause" class="active" next_page="special-clause" canadd="1" tabname="special">Special Instructions</a>

					</div>
				</div>
				<div class="row">
					<div class="col-xs-12">
                    	<div id="mfAddWrap">

						<input class="" name="spl_clause_process" id="spl_clause_process" value="1" type="hidden">
				         		                                    <div><!-- do not delte this div -->
                                        <h3>
                                            <span class="special_clause_numbering" style="float:left">Add Special Instruction #1 &nbsp;&nbsp;&nbsp; <a href="#" class="blue-italic-cities" data-toggle="modal" data-target="#spl_example">Examples of Special Instructions</a></span>
                                                                                                <span><a href="javascript:void(0);" id="mfAddBtn" style="align:right;" class="btn btn-primary btn-sm btn-add-large" title="Add Special Instruction" alt="Add Special Instruction">+ Add Special Instruction</a></span>
                                                                                    </h3>

                                        <div class="panel panel-body">
                                            <div class="row">
                                                <div class="col-xs-12">
                                                    <label class="mandatory mandatory_label">Special Instruction (upto 300 characters) </label>
                                                    <textarea class="input-select form-control" name="special_clause[]" title="Please enter Special Instruction" alt="Please enter Special Instruction" maxlength="300"></textarea>
                                                </div>
                                            </div>
                                        </div><!-- panel-body END -->

                                    </div>

                        </div><!-- mfAddWrap END -->
                        <p>&nbsp;</p>
						<div class="bottom_buttons">
                            <input name="clause_id" id="clause_id" value="0" type="hidden">
							<div class="div_prev_button">
								<input name="previous" id="btn-previous" value="« Prev" title="Click here to go on Previous page" alt="Click here to go on Previous page" class="btn-submit btn-move" next_page="contingency-special-clause" type="button">
							</div>
							<div class="div_center_buttons">
							<input name="add_special_clause" id="btn-add" value="Add / Save" title="Click here to Add / Save the entered data" alt="Click here to Add / Save the entered data" class="btn-submit " type="submit">
								<input name="update" id="btn-update" value="Update" title="Click here to Update the changed data" alt="Click here to Update the changed data" class="btn-submit btn-submit-disabled" disabled="" type="submit">
							</div>
							<div class="div_next_button" style="text-align: right;">
								<input name="next" id="btn-next" value="Preview »" title="Click here to go to Preview page" alt="Click here to go to Preview page" class="btn-submit btn-move" next_page="finalize-will" type="button">
							</div><br><br><br>
						</div>
						<input name="txt_other_submit" id="txt_other_submit" value="0" type="hidden">
<input name="txt_redirect_page" id="txt_redirect_page" value="" type="hidden">
<input name="sumbit" value="Submit" class="btn-submit btn-submit-disabled" title="Submit Button will be enabled after completion of compulsory tabs marked with top orange border" alt="Submit Button will be enabled after completion of compulsory tabs marked with top orange border" disabled="" type="submit">                    </div><!-- col-xs-12 END -->
                </div><!-- row END -->
			</div>
        </form></div>

