<ul class="nav nav-tabs bank6">
<li class="active"><a data-toggle="tab" data="../ajax-request/will_request.php?action=sub_contingency-special-clause">Contingent Beneficiary</a></li>
<li><a data-toggle="tab" data="../ajax-request/will_request.php?action=sub_special-clause">Special Instructions</a></li
></ul>

<div class="panel-body-small6">

</div>

<!-- <script src="js/jquery.min.js"></script>
<script src="https://maxcdn.bootstrapcdn.com/bootstrap/3.3.7js/bootstrap.min.js"></script> -->
<script type="text/javascript">
  $(document).ready(function(){
    // alert("hello");
    $('.bank6 li a').click(function(){
      var list = $(this).attr("data");
      $.ajax({
        url: list,
        type: 'get',
        success: function(data){
          $('.panel-body-small6').html(data);
        },
        error: function(error){

        }
      });
    });

  });
</script>

