<?php
include_once ("../../../__lib.includes/config.inc.php");
$pi_data = $willProfile->getWillDetails('will_personal_information');
// print_r($pi_data);
?>

<style>
    #start {font-family: 'Montserrat', sans-serif;font-size:18px;border-radius:5px;margin-bottom:30px;width:310px;background-color:#003366;color: #fff; height: 64px;}


</style>
<div class="agreement-row">
	<div class="container">
        <div class="row" align="center">
		  <h4>Welcome to TaxSave Will creator. <br><br>
              You may create a will by following a simple process as depicted below.</h4>
        </div>
        <div class="row" align="center">
            <img src=""/>
        </div>
	
        
        <div class="row" align="center">
            <form name="frmProfiles" action="data_submit/frmForm.php"
			method="post" class="frmCurrent" autocomplete="off">
                <button type="submit" id="start" name="start">Click to start preparing a will</button>
            </form>
        </div>
	</div>
</div>


