<?php
	//print_r($_REQUEST);
?>
<ul class="nav nav-tabs assettab1">
                                        <li class="active">
                                            <a data-toggle="tab" href="#tab21" data-url="../ajax-request/will_request.php?action=ba&nav=ba">Bank Accounts</a>
                                        </li>
                                        <li>
                                            <a data-toggle="tab" href="#tab22" data-url="../ajax-request/will_request.php?action=smb&nav=smb">Securities / MF / Bonds</a>
                                        </li>
                                        <li>
                                            <a data-toggle="tab" href="#tab23" data-url="../ajax-request/will_request.php?action=ip&nav=ip">Immovable Properties</a>
                                        </li>
                                        <li>
                                            <a data-toggle="tab" href="#tab24" data-url="../ajax-request/will_request.php?action=add_bussiness&nav=bu">Business</a>
                                        </li>                                        
                                       <li>
                                            <a data-toggle="tab" href="#tab25" data-url="../ajax-request/will_request.php?action=rf&nav=rf">Retirement Funds</a>
                                        </li>
                                       <li>
                                            <a data-toggle="tab" href="#tab26" data-url="../ajax-request/will_request.php?action=add_gi&nav=gi">General Insurance</a>
                                        </li>                                        
                                        <li>
                                            <a data-toggle="tab" href="#tab27" data-url="../ajax-request/will_request.php?action=lip&nav=li">Life Insurance Policies</a>
                                        </li>
                                        <li>
                                            <a data-toggle="tab" href="#tab28" data-url="../ajax-request/will_request.php?action=add_jwe&nav=je">Jewellery</a>
                                        </li>
                                        <li>
                                            <a data-toggle="tab" href="#tab29" data-url="../ajax-request/will_request.php?action=add_bo&nav=bo">Body Organ</a>
                                        </li>
                                        <li>
                                            <a data-toggle="tab" href="#tab30" data-url="../ajax-request/will_request.php?action=add_pa&nav=pa">Pet Animal</a>
                                        </li>                                        
                                        <li>
                                            <a data-toggle="tab" href="#tab31" data-url="../ajax-request/will_request.php?action=oa&nav=oa">Other Assets</a>
                                        </li>
                                        <li>
                                            <a data-toggle="tab" href="#tab32" data-url="../ajax-request/will_request.php?action=liab&nav=li">Liabilities</a>
                                        </li>  
                                    </ul>


<div class="panel-body-small2"></div>

<script type="text/javascript">
        // alert("hello");
        
        function loadcontents_assets(urltoload) {
        	$.ajax({
                url: urltoload,
                type: 'post',
                success: function(data) {
                    $('.panel-body-small2').html(data);
                },
                error: function(error) {
        
                }
            });
        }

        function getParameterByName(name, url) {
            if (!url) url = window.location.href;
            name = name.replace(/[\[\]]/g, "\\$&");
            var regex = new RegExp("[?&]" + name + "(=([^&#]*)|&|#|$)"),
                results = regex.exec(url);
            if (!results) return null;
            if (!results[2]) return '';
            return decodeURIComponent(results[2].replace(/\+/g, " "));
        }
               
$(document).ready(function() {
    $('.assettab1 li a').click(function() {
    	
        var list = $(this).attr("data-url");
        //var act = getParameterByName("nav",list);
        //url.set(act);
        //alert(act);
        //alert("url : " + list);
       		
        //window.location.href= redirectadd;
        
         $.ajax({
            url: list,
            type: 'post',
            success: function(data) {
                $('.panel-body-small2').html(data);
            },
            error: function(error) {
                alert(error);
            }
        }); 
    });
});

var redirparam = url.searchParams.get("subpage");
//alert("default");
$(".assettab1 li").removeClass("active"); //Remove any "active" class
/* if(redirparam == "ba") {
	
}  else  */
if(redirparam == "smb") {
	$(".assettab1 li:eq(1)").addClass("active").show();
    loadcontents_assets("../ajax-request/will_request.php?action=smb&nav=smb");
}  else if(redirparam == "ip") {
	$(".assettab1 li:eq(2)").addClass("active").show();
    loadcontents_assets("../ajax-request/will_request.php?action=ip&nav=ip");
}  else if(redirparam == "bu") {
	$(".assettab1 li:eq(3)").addClass("active").show();
    loadcontents_assets("../ajax-request/will_request.php?action=add_bussiness&nav=bu");
}  else if(redirparam == "rf") {
	$(".assettab1 li:eq(4)").addClass("active").show();
    loadcontents_assets("../ajax-request/will_request.php?action=rf&nav=rf");
}  else if(redirparam == "gi") {
	$(".assettab1 li:eq(5)").addClass("active").show();
    loadcontents_assets("../ajax-request/will_request.php?action=add_gi&nav=gi");
}  else if(redirparam == "li") {
	$(".assettab1 li:eq(6)").addClass("active").show();
    loadcontents_assets("../ajax-request/will_request.php?action=lip&nav=li");
}  else if(redirparam == "je") {
	$(".assettab1 li:eq(7)").addClass("active").show();
    loadcontents_assets("../ajax-request/will_request.php?action=add_jwe&nav=je");
}  else if(redirparam == "bo") {
	$(".assettab1 li:eq(8)").addClass("active").show();
    loadcontents_assets("../ajax-request/will_request.php?action=add_bo&nav=bo");
}  else if(redirparam == "pa") {
	$(".assettab1 li:eq(9)").addClass("active").show();
    loadcontents_assets("../ajax-request/will_request.php?action=add_pa&nav=pa");
}  else if(redirparam == "oa") {
	$(".assettab1 li:eq(10)").addClass("active").show();
    loadcontents_assets("../ajax-request/will_request.php?action=oa&nav=oa");
}  else if(redirparam == "liab") {
	$(".assettab1 li:eq(11)").addClass("active").show();
    loadcontents_assets("../ajax-request/will_request.php?action=liab&nav=li");
}  else {
	$(".assettab1 li:first").addClass("active").show();
    loadcontents_assets("../ajax-request/will_request.php?action=ba&nav=ba");
}
</script>
           
