<?php
include_once ("../../../__lib.includes/config.inc.php");
$pi_data = $willProfile->getWillDetails('will_personal_information');
// print_r($pi_data);
?>
<div class="agreement-row">
	<div class="container">
		<form name="frmProfiles" action="data_submit/frmForm.php"
			method="post" class="frmCurrent" autocomplete="off">
			<div class="row">
				<div class="col-xs-12">
					<div class="panel panel-body" id="div_personal_info">
						<center>
							<p class="error" id="error1"></p>
						</center>
						<div class="row">
							<div class="col-xs-4">
								<label class="mandatory mandatory_label">PAN Number<span
									class="mandatory_star">*</span>
								</label> <input type="text" class="form-control"
									name="panaadharnum" id="panaadharnum"
									value="<?php echo $pi_data->pi_panaadharnum; ?>"
									placeholder="PAN Number" class="form-control"
									maxlength="19"
									title='Only alphabets are allowed. Abbreviations and initials to be avoided'
									alt='Only alphabets are allowed. Abbreviations and initials to be avoided'>
							</div>
							<div class="col-xs-4">
								<label class="mandatory mandatory_label">Aadhaar Number<span
									class="mandatory_star">*</span>
								</label> <input type="text" class="form-control"
									name="panaadharnumper" id="panaadharnumper"
									value="<?php echo $pi_data->pi_panaadharnumper; ?>"
									placeholder="Aadhaar Number" class="form-control"
									maxlength="19"
									title='Only alphabets are allowed. Abbreviations and initials to be avoided'
									alt='Only alphabets are allowed. Abbreviations and initials to be avoided'>
							</div>
							<div class="col-xs-12">
								<label class="mandatory mandatory_label">Full Name of the <strong><a
										href="#" data-toggle="modal" data-target="#testator">Testator</a></strong>
									<span class="mandatory_star">*</span>
								</label>
								<div class="row">
									<div class="col-xs-3">
										<select name="title" id="title"
											class="input-select form-control "
											title='Please select appropriate title from the dropdown list. Drop-down of the standard Titles normally used in writing Will'
											alt='Please select appropriate title from the dropdown list. Drop-down of the standard Titles normally used in writing Will'
											data-validation='length' data-validation-length='1-3'
											data-validation-error-msg='Please select a title'
											onchange="javascript: title_change();">
                                            <?php $selected=$pi_data->pi_title; ?>
                                            <option value=""
												<?php echo ($selected=="" ) ? "selected" : "" ; ?>>Title</option>
											<option value="1"
												<?php echo ($selected==1 ) ? "selected" : "" ; ?>>Mr.</option>
											<option value="2"
												<?php echo ($selected==2 ) ? "selected" : "" ; ?>>Mrs.</option>
											<option value="3"
												<?php echo ($selected==3 ) ? "selected" : "" ; ?>>Ms.</option>
										</select>
									</div>
									<div class="col-xs-3">
										<input type="text" name="firstname" id="firstname"
											value="<?php echo $pi_data->pi_f_name; ?>"
											placeholder="First Name" class="form-control" maxlength="33"
											title='Only alphabets are allowed. Abbreviations and initials to be avoided'
											alt='Only alphabets are allowed. Abbreviations and initials to be avoided' />
									</div>
									<div class="col-xs-3">
										<input type="text" name="middlename" id="middlename"
											value="<?php echo $pi_data->pi_m_name; ?>"
											placeholder="Middle Name" class="form-control"
											title='Only alphabets are allowed'
											alt='Only alphabets are allowed' maxlength="33" />
									</div>
									<div class="col-xs-3">
										<input type="text" class="form-control" name="lastname"
											id="lastname" value="<?php echo $pi_data->pi_l_name; ?>"
											placeholder="Last Name / Surname" class="form-control"
											maxlength="33"
											title="Only alphabets and single apphostophe (') is allowed as special characters. For e.g. D'Silva, D'Souza. If you have a single name, please enter here"
											alt="Only alphabets and single apphostophe (') is allowed as special characters. For e.g. D'Silva, D'Souza. If you have a single name, please enter here"
											data-validation="length" data-validation-length="2-33"
											data-validation-error-msg="Please enter valid Last Name / Surname" />
									</div>
								</div>
							</div>
						</div>
						<!-- row END -->
						<div class="divider"></div>
						<div class="row">
							<div class="col-xs-12">
								<span class="father_mother_husband_label"
									id="father_mother_husband_label"><label class="mandatory"> <input
										type="radio" name="father_mother_husband_relation"
										title="Father" alt="Father" value="F"
										<?php if($pi_data->pi_gd_rel==="F") { echo "checked" ; }  ?>>
										Father's &nbsp; <input type="radio"
										name="father_mother_husband_relation" title="Mother"
										alt="Mother" value="M"
										<?php if($pi_data->pi_gd_rel=="M") echo "checked"; ?>>
										Mother's &nbsp; <input type="radio"
										name="father_mother_husband_relation" title="Spouse"
										alt="Spouse" id="radio_spouse" value="S"
										<?php if($pi_data->pi_gd_rel=="S") { echo "checked"; } ?>> <span
										id="span_spouse">Spouse's Name</span> &nbsp; <input
										type="radio" name="father_mother_husband_relation"
										title="Not Applicable" alt="Not Applicable" value="N"
										<?php if($pi_data->pi_gd_rel=="N"){ echo "checked";} ?>> Not
										Applicable
								</label> </span>
								<div class="row">
									<div class="col-xs-3">
										<select name="father_mother_husband_title"
											id="father_mother_husband_title" class="form-control"
											title='Please select appropriate title from the dropdown list. Drop-down of the standard Titles normally used in writing Will'
											alt='Please select appropriate title from the dropdown list. Drop-down of the standard Titles normally used in writing Will'
											onchange="javascript: title_change();">
                                            <?php $selected=$pi_data->pi_gd_title; ?>
                                            <option value=""
												<?php echo ($selected=="" ) ? "selected" : "" ; ?>>Title</option>
											<option value="1"
												<?php echo ($selected==1 ) ? "selected" : "" ; ?>>Mr.</option>
											<option value="2"
												<?php echo ($selected==2 ) ? "selected" : "" ; ?>>Mrs.</option>
											<option value="3"
												<?php echo ($selected==3 ) ? "selected" : "" ; ?>>Ms.</option>
											<option value="25"
												<?php echo ($selected==25) ? "selected" : "" ; ?>>Late Mr.</option>
											<option value="26"
												<?php echo ($selected==26) ? "selected" : "" ; ?>>Late Mrs.
											</option>
										</select>
									</div>
									<div class="col-xs-3">
										<input type="text" name="father_mother_husband_firstname"
											id="father_mother_husband_firstname"
											value="<?php echo $pi_data->pi_gd_f_name; ?>"
											placeholder="First Name" class="form-control" maxlength="33"
											title='Only alphabets are allowed. Abbreviations and initials to be avoided'
											alt='Only alphabets are allowed. Abbreviations and initials to be avoided' />
									</div>
									<div class="col-xs-3">
										<input type="text" name="father_mother_husband_middlename"
											id="father_mother_husband_middlename"
											value="<?php echo $pi_data->pi_gd_mid_name; ?>"
											placeholder="Middle Name" class="form-control" maxlength="33"
											title='Only alphabets are allowed'
											alt='Only alphabets are allowed' />
									</div>
									<div class="col-xs-3">
										<input type="text" name="father_mother_husband_lastname"
											id="father_mother_husband_lastname"
											value="<?php echo $pi_data->pi_gd_l_name; ?>"
											placeholder="Last Name / Surname" class="form-control"
											maxlength="33"
											title="Only alphabets and single apphostophe (') is allowed as special characters. For e.g. D'Silva, D'Souza. If you have a single name, please enter here"
											alt="Only alphabets and single apphostophe (') is allowed as special characters. For e.g. D'Silva, D'Souza. If you have a single name, please enter here" />
									</div>

								</div>
							</div>
						</div>

						<div class="divider"></div>

						<div class="row">
							<div class="col-xs-2">
								<label class="cnd-mandatory mandatory_label">Date of Birth <span
									class="mandatory_star">*</span>
								</label> <input type="date" id="show_birth_date"
									class="form-control" name="birth_date"
									value="<?php echo $pi_data->pi_d_o_b; ?>"
									placeholder="Birth date"
									title='Please select Date of Birth. Click inside the box to view calender and select the date. 18 years and above are allowed'
									alt='Please select Date of Birth. Click inside the box to view calender and select the date. 18 years and above are allowed' />
							</div>
							<div class="col-xs-2">
								<label class="cnd-mandatory mandatory_label">Age <span
									class="mandatory_star">*</span>
								</label> <input type="text" id="per_info_age"
									name="per_info_age" class="form-control"
									value="<?php echo $pi_data->pi_per_info_age; ?>"
									placeholder="Age" title='Age' alt='Age' />
							</div>
							<div class="col-xs-2 reg-date">
								<label>OR </label> &nbsp; <input type="checkbox" name="is_adult"
									id="is_adult" value="1"
									<?php echo ($pi_data->pi_adult == 1)?"checked":"" ?>
									title="If you don't remember Date of Birth, please select appropriate age status from the dropdown list"
									alt="If you don't remember Date of Birth, please select appropriate age status from the dropdown list" />
								<span class="mandatory_label"> I am Adult </span> <span
									class="mandatory_star">*</span>
							</div>
							<div class="col-xs-2">
								<label class="mandatory_label">Gender <span
									class="mandatory_star">*</span>
								</label> <select name="gender" id="gender"
									class="input-select form-control"
									title='Please select appropriate gender from the dropdown list'
									alt='Please select appropriate gender from the dropdown list'
									data-validation="length" data-validation-length="1-20"
									data-validation-error-msg="Please select a Gender">

									<option value=""
										<?php echo ($pi_data->pi_gender == "")?"selected":""; ?>>Please
										select</option>
									<option value="1"
										<?php echo ($pi_data->pi_gender == 1)?"selected":""; ?>>Male</option>
									<option value="2"
										<?php echo ($pi_data->pi_gender == 2)?"selected":""; ?>>Female</option>
									<option value="3"
										<?php echo ($pi_data->pi_gender == 3)?"selected":""; ?>>Transgender</option>
								</select>
							</div>

							<div class="col-xs-3">
								<span id="span_anniversary_date" style='display: none;'> <label
									class="cnd-mandatory">Anniversary Date</label> <input
									type="text" id="show_anniversary_date" class="form-control"
									value="<?php echo $pi_data->pi_anniv_date; ?>"
									placeholder="Anniversary Date" maxlength="60"
									title='Please select Anniversary Date'
									alt='Please select Anniversary Date' />
								</span>
							</div>

						</div>

					</div>
					<!-- panel-body END -->

					<h4>
						<strong>Permanent Address 1</strong>
					</h4>
					<div class="panel panel-body" id="div_permanent_address">
						<center>
							<p class="error" id="error2"></p>
						</center>
						<div class="row"></div>
						<div class="divider"></div>
						<div class="row">
							<div class="col-xs-4">
								<label class="mandatory mandatory_label">Address Line1 <span
									class="mandatory_star">*</span>
								</label> <input type="text" name="permanent_address_line1"
									id="permanent_address_line1" class="form-control"
									value="<?php echo $pi_data->pi_per_addr_line1; ?>"
									placeholder="Address Line1" maxlength="60"
									title='Please enter Flat / Floor / Door / Block Number as applicable'
									alt='Please enter Flat / Floor / Door / Block Number as applicable'
									data-validation="length" data-validation-length="1-60"
									data-validation-error-msg="Please enter valid Address Line1 for permanent address" />
							</div>
							<div class="col-xs-4">
								<label class="mandatory mandatory_label">Address Line2 <span
									class="mandatory_star">*</span>
								</label> <input type="text" name="permanent_address_line2"
									id="permanent_address_line2" class="form-control"
									value="<?php echo $pi_data->pi_per_addr_line2; ?>"
									placeholder="Address Line2" maxlength="60"
									title="Please enter Name of Premises / Building of Permanent Address"
									alt="Please enter Name of Premises / Building of Permanent Address"
									data-validation="length" data-validation-length="1-60"
									data-validation-error-msg="Please enter valid Address Line2 for permanent address" />
							</div>
							<div class="col-xs-4">
								<label>Address Line3</label> <input type="text"
									name="permanent_address_line3" id="permanent_address_line3"
									class="form-control"
									value="<?php echo $pi_data->pi_per_addr_line3; ?>"
									placeholder="Address Line3" maxlength="60"
									title="Please enter name of Road / Street / Lane as applicable "
									alt="Please enter name of Road / Street / Lane as applicable " />
							</div>
						</div>
						<div class="divider"></div>
						<div class="row">
							<div class="col-xs-3">
								<label class="mandatory_label">City / Village / Town <span
									class="mandatory_star">*</span>
								</label> <input type="text" name="permanent_city_village_town"
									id="permanent_city_village_town" class="form-control"
									value="<?php echo $pi_data->pi_per_city; ?>"
									placeholder="City / Village / Town" maxlength="60"
									title="Please enter name of City / Village / Town as applicable"
									alt="Please enter name of City / Village / Town as applicable"
									data-validation="length" data-validation-length="1-60"
									data-validation-error-msg="Please enter valid City / Village / Town for permanent address" />
							</div>
							<div class="col-xs-2">
								<label class="mandatory mandatory_label">State <span
									class="mandatory_star">*</span>
								</label> <span id="span_correspondence_state">
                                    <?php $corre_state=$pi_data->pi_per_state; ?>
									<select name="permanent_state" id="permanent_state"
									class="input-select form-control"
									title='Please select appropriate State for Permanent Address'
									alt='Please select appropriate State for Permanent Address'
									data-validation="length" data-validation-length="1-60"
									data-validation-error-msg="Please select a valid State for permanent address"
									onchange="javascript: toggle_other_state('permanent_state', 'span_other_state');">
										<option value="35"
											<?php echo ($corre_state == 35)?"selected":"" ?>>Andaman and
											Nicobar Islands</option>
										<option value="25"
											<?php echo ($corre_state == 25)?"selected":"" ?>>Daman and
											Diu</option>
										<option value="28"
											<?php echo ($corre_state == 28)?"selected":"" ?>>Andhra
											Pradesh</option>
										<option value="12"
											<?php echo ($corre_state == 12)?"selected":"" ?>>Arunachal
											Pradesh</option>
										<option value="18"
											<?php echo ($corre_state == 18)?"selected":"" ?>>Assam</option>
										<option value="10"
											<?php echo ($corre_state == 10)?"selected":"" ?>>Bihar</option>
										<option value="4"
											<?php echo ($corre_state == 4)?"selected":"" ?>>Chandigarh</option>
										<option value="22"
											<?php echo ($corre_state == 22)?"selected":"" ?>>Chhattisgarh</option>
										<option value="26"
											<?php echo ($corre_state == 26)?"selected":"" ?>>Dadra and
											Nagar Haveli</option>
										<option value="7"
											<?php echo ($corre_state == 7)?"selected":"" ?>>Delhi</option>
										<option value="30"
											<?php echo ($corre_state == 30)?"selected":"" ?>>Goa</option>
										<option value="24"
											<?php echo ($corre_state == 24)?"selected":"" ?>>Gujarat</option>
										<option value="6"
											<?php echo ($corre_state == 6)?"selected":"" ?>>Haryana</option>
										<option value="2"
											<?php echo ($corre_state == 2)?"selected":"" ?>>Himachal
											Pradesh</option>
										<option value="1"
											<?php echo ($corre_state == 1)?"selected":"" ?>>Jammu and
											Kashmir</option>
										<option value="20"
											<?php echo ($corre_state == 20)?"selected":"" ?>>Jharkhand</option>
										<option value="29"
											<?php echo ($corre_state == 29)?"selected":"" ?>>Karnataka</option>
										<option value="32"
											<?php echo ($corre_state == 32)?"selected":"" ?>>Kerala</option>
										<option value="31"
											<?php echo ($corre_state == 31)?"selected":"" ?>>Lakshadweep</option>
										<option value="23"
											<?php echo ($corre_state == 23)?"selected":"" ?>>Madhya
											Pradesh</option>
										<option value="27"
											<?php echo ($corre_state == 27)?"selected":"" ?>>Maharashtra</option>
										<option value="14"
											<?php echo ($corre_state == 14)?"selected":"" ?>>Manipur</option>
										<option value="17"
											<?php echo ($corre_state == 17)?"selected":"" ?>>Meghalaya</option>
										<option value="15"
											<?php echo ($corre_state == 15)?"selected":"" ?>>Mizoram</option>
										<option value="13"
											<?php echo ($corre_state == 13)?"selected":"" ?>>Nagaland</option>
										<option value="21"
											<?php echo ($corre_state == 21)?"selected":"" ?>>Odisha</option>
										<option value="34"
											<?php echo ($corre_state == 34)?"selected":"" ?>>Puducherry</option>
										<option value="3"
											<?php echo ($corre_state == 3)?"selected":"" ?>>Punjab</option>
										<option value="8"
											<?php echo ($corre_state == 8)?"selected":"" ?>>Rajasthan</option>
										<option value="11"
											<?php echo ($corre_state == 11)?"selected":"" ?>>Sikkim</option>
										<option value="33"
											<?php echo ($corre_state == 33)?"selected":"" ?>>Tamil Nadu</option>
										<option value="36"
											<?php echo ($corre_state == 36)?"selected":"" ?>>Telangana</option>
										<option value="16"
											<?php echo ($corre_state == 16)?"selected":"" ?>>Tripura</option>
										<option value="5"
											<?php echo ($corre_state == 5)?"selected":"" ?>>Uttarakhand</option>
										<option value="9"
											<?php echo ($corre_state == 9)?"selected":"" ?>>Uttar Pradesh</option>
										<option value="19"
											<?php echo ($corre_state == 19)?"selected":"" ?>>West Bengal</option>
								</select>
								</span>
							</div>
							<div class="col-xs-2">
								<label class="mandatory mandatory_label">Pincode / Zipcode <span
									class="mandatory_star">*</span>
								</label> <input type="text" name="permanent_zipcode"
									id="permanent_zipcode" class="form-control  numeric"
									value="<?php echo $pi_data->pi_per_zip; ?>"
									placeholder="Pincode" data-validation="length"
									data-validation-error-msg="Please enter valid Pincode / Zipcode permanent address"
									maxlength="6" data-validation-length="6-6"
									title="Please enter PIN Code for India if Permanent Address is in India, Zip Code for address outside India"
									alt="Please enter PIN Code for India if Permanent Address is in India, Zip Code for address outside India" />
							</div>
							<div class="col-xs-2">
								<label class="mandatory mandatory_label">Country <span
									class="mandatory_star">*</span>
								</label> <span id="span_permanent_country"> <select
									name="permanent_country" id="permanent_country"
									class="input-select form-control select-country-list"
									title='Please select appropriate Country for Permanent Address'
									alt='Please select appropriate Country for Permanent Address'
									data-validation="length" data-validation-length="1-60"
									data-validation-error-msg="Please select a valid Country for permanent address"
									other_state_txt="permanent_state_other"
									onchange="javascript: populate_states(this.value,'permanent_state', 'span_permanent_state', '6', 'toggle_other_state(\'permanent_state\', \'span_permanent_state_other\')'); toggle_other_state_country(this.value, 'span_permanent_state_other');">
										<option value="102"
											<?php echo ($pi_data->pi_per_country == 102)?"selected":"" ?>>India</option>
								</select>
								</span>
							</div>
							<div class="col-xs-3">
								<span id="span_permanent_state_other" style='display: none;'> <label
									class="cnd-mandatory mandatory_label">Other state (If not
										listed) <!-- <span class="mandatory_star">*</span> -->
								</label> <input type="text" name="permanent_state_other"
									id="permanent_state_other" class="form-control"
									value="<?php echo $pi_data->pi_state_oth ?>"
									placeholder="Other state" maxlength="60"
									title='Please enter appropriate State for Permanent Address, if country is other than India'
									alt='Please enter appropriate State for Permanent Address, if country is other than India' />

								</span>
							</div>
						</div>
					</div>
					<!-- Permanent Address END -->


					<h4>
						<strong id="test">Correspondence Address</strong> <span
							class="mandatory">Is the Correspondence Address same as Permanent
							Address ? <input type="checkbox" id="chkcorrespondence"
							name="is_correspondence_same_as_permanent"
							title='Select the checkbox if Correspondence address is same as Permanent  Address'
							alt='Select the checkbox if Correspondence address is same as Permanent  Address'
							 />
					
					</h4>
					<div class="panel panel-body correspondenceAdd">
						<center>
							<p class="error" id="error3"></p>
						</center>
						<!-- <div class="row">
                            <div class="col-xs-6">
                                &nbsp;&nbsp;&nbsp;
                                <input type="checkbox" name="correspondence_is_foreign_address" id="correspondence_is_foreign_address" value="1" title='Select if Correspondence address is outside India' alt='Select if Correspondence address is outside India' class="is_foreign_address" changezip="correspondence_zipcode" changecountry="correspondence_country" country="correspondence_country" state="correspondence_state" span_country="span_correspondence_country" span_state="span_correspondence_state" other_state="span_correspondence_state_other" other_state_txt="correspondence_state_other" disabled/> &nbsp;&nbsp;&nbsp;
                                <label>Is this Address a Foreign Address?</label>
                            </div>
                        </div> -->
						<div class="divider"></div>
						<div class="row">
							<div class="col-xs-4">
								<label class="mandatory mandatory_label">Address Line1 <span
									class="mandatory_star">*</span>
								</label> <input type="text" class="form-control"
									id="correspondence_address_line1"
									name="correspondence_address_line1" placeholder="Address Line1"
									value="<?php echo $pi_data->corre_addr_line1 ?>" maxlength="60"
									data-validation="length" data-validation-length="1-60"
									data-validation-error-msg="Please enter valid Address Line1 for correspondence address"
									title="Please enter Flat / Floor / Door / Block Number as applicable"
									alt="Please enter Flat / Floor / Door / Block Number as applicable" />
							</div>
							<div class="col-xs-4">
								<label class="mandatory mandatory_label">Address Line2 <span
									class="mandatory_star">*</span>
								</label> <input type="text" class="form-control"
									id="correspondence_address_line2"
									name="correspondence_address_line2" placeholder="Address Line2"
									value="<?php echo $pi_data->corre_addr_line2 ?>" maxlength="60"
									data-validation="length" data-validation-length="1-60"
									data-validation-error-msg="Please enter valid Address Line2 for correspondence address"
									title="Please enter Name of Premises / Building of Permanent Address"
									alt="Please enter Name of Premises / Building of Permanent Address" />
							</div>
							<div class="col-xs-4">
								<label>Address Line3</label> <input type="text"
									class="form-control" id="correspondence_address_line3"
									name="correspondence_address_line3" placeholder="Address Line3"
									value="<?php echo $pi_data->corre_addr_line3 ?>"
									title="Please enter name of Road / Street / Lane as applicable "
									alt="Please enter name of Road / Street / Lane as applicable "
									maxlength="60" />
							</div>
						</div>
						<div class="divider"></div>
						<div class="row">
							<div class="col-xs-3">
								<label class="mandatory_label">City / Village / Town <span
									class="mandatory_star">*</span>
								</label> <input type="text" class="form-control"
									id="correspondence_city_village_town"
									name="correspondence_city_village_town"
									placeholder="City / Village / Town"
									value="<?php echo $pi_data->corre_city ?>"
									title="Please enter name of City / Village / Town as applicable"
									alt="Please enter name of City / Village / Town as applicable"
									maxlength="60" data-validation="length"
									data-validation-length="1-60"
									data-validation-error-msg="Please enter valid City / Village / Town for correspondence address" />
							</div>
							<div class="col-xs-2">
								<label class="mandatory mandatory_label">State <span
									class="mandatory_star">*</span>
								</label> <span id="span_correspondence_state">

                                    <?php $curr_state=$pi_data->corre_state; ?>
                                    <select name="correspondence_state"
									id="correspondence_state" class="input-select form-control"
									title='Please select appropriate State for Permanent Address'
									alt='Please select appropriate State for Permanent Address'
									data-validation="length" data-validation-length="1-60"
									data-validation-error-msg="Please select a valid State for permanent address"
									onchange="javascript: toggle_other_state('correspondence_state', 'span_other_state');">
										<option value="35" selected
											<?php echo ($curr_state == 35)?"selected":"" ?>>Andaman and
											Nicobar Islands</option>
										<option value="25"
											<?php echo ($curr_state == 25)?"selected":"" ?>>Daman and Diu</option>
										<option value="28"
											<?php echo ($curr_state == 28)?"selected":"" ?>>Andhra
											Pradesh</option>
										<option value="12"
											<?php echo ($curr_state == 12)?"selected":"" ?>>Arunachal
											Pradesh</option>
										<option value="18"
											<?php echo ($curr_state == 18)?"selected":"" ?>>Assam</option>
										<option value="10"
											<?php echo ($curr_state == 10)?"selected":"" ?>>Bihar</option>
										<option value="4"
											<?php echo ($curr_state == 4)?"selected":"" ?>>Chandigarh</option>
										<option value="22"
											<?php echo ($curr_state == 22)?"selected":"" ?>>Chhattisgarh</option>
										<option value="26"
											<?php echo ($curr_state == 26)?"selected":"" ?>>Dadra and
											Nagar Haveli</option>
										<option value="7"
											<?php echo ($curr_state == 7)?"selected":"" ?>>Delhi</option>
										<option value="30"
											<?php echo ($curr_state == 30)?"selected":"" ?>>Goa</option>
										<option value="24"
											<?php echo ($curr_state == 24)?"selected":"" ?>>Gujarat</option>
										<option value="6"
											<?php echo ($curr_state == 6)?"selected":"" ?>>Haryana</option>
										<option value="2"
											<?php echo ($curr_state == 2)?"selected":"" ?>>Himachal
											Pradesh</option>
										<option value="1"
											<?php echo ($curr_state == 1)?"selected":"" ?>>Jammu and
											Kashmir</option>
										<option value="20"
											<?php echo ($curr_state == 20)?"selected":"" ?>>Jharkhand</option>
										<option value="29"
											<?php echo ($curr_state == 29)?"selected":"" ?>>Karnataka</option>
										<option value="32"
											<?php echo ($curr_state == 32)?"selected":"" ?>>Kerala</option>
										<option value="31"
											<?php echo ($curr_state == 31)?"selected":"" ?>>Lakshadweep</option>
										<option value="23"
											<?php echo ($curr_state == 23)?"selected":"" ?>>Madhya
											Pradesh</option>
										<option value="27"
											<?php echo ($curr_state == 27)?"selected":"" ?>>Maharashtra</option>
										<option value="14"
											<?php echo ($curr_state == 14)?"selected":"" ?>>Manipur</option>
										<option value="17"
											<?php echo ($curr_state == 17)?"selected":"" ?>>Meghalaya</option>
										<option value="15"
											<?php echo ($curr_state == 15)?"selected":"" ?>>Mizoram</option>
										<option value="13"
											<?php echo ($curr_state == 13)?"selected":"" ?>>Nagaland</option>
										<option value="21"
											<?php echo ($curr_state == 21)?"selected":"" ?>>Odisha</option>
										<option value="34"
											<?php echo ($curr_state == 34)?"selected":"" ?>>Puducherry</option>
										<option value="3"
											<?php echo ($curr_state == 3)?"selected":"" ?>>Punjab</option>
										<option value="8"
											<?php echo ($curr_state == 8)?"selected":"" ?>>Rajasthan</option>
										<option value="11"
											<?php echo ($curr_state == 11)?"selected":"" ?>>Sikkim</option>
										<option value="33"
											<?php echo ($curr_state == 33)?"selected":"" ?>>Tamil Nadu</option>
										<option value="36"
											<?php echo ($curr_state == 36)?"selected":"" ?>>Telangana</option>
										<option value="16"
											<?php echo ($curr_state == 16)?"selected":"" ?>>Tripura</option>
										<option value="5"
											<?php echo ($curr_state == 5)?"selected":"" ?>>Uttarakhand</option>
										<option value="9"
											<?php echo ($curr_state == 9)?"selected":"" ?>>Uttar Pradesh</option>
										<option value="19"
											<?php echo ($curr_state == 19)?"selected":"" ?>>West Bengal</option>
								</select>
								</span>
							</div>
							<div class="col-xs-2">
								<label class="mandatory mandatory_label">Pincode / Zipcode <span
									class="mandatory_star">*</span>
								</label> <input type="text" name="correspondence_zipcode"
									id="correspondence_zipcode" class="form-control numeric"
									value="<?php echo $pi_data->corre_zip ?>" placeholder="Pincode"
									data-validation="length"
									data-validation-error-msg="Please enter valid Pincode / Zipcode for correspondence address"
									title="Please enter PIN Code for India if Correspondence Address is in India, Zip Code for address outside India"
									alt="Please enter PIN Code for India if Correspondence Address is in India, Zip Code for address outside India"
									maxlength="6" data-validation-length="6-6" />
							</div>
							<div class="col-xs-2">
								<label class="mandatory mandatory_label">Country <span
									class="mandatory_star">*</span>
								</label> <span id="span_correspondence_country"> <select
									name="correspondence_country" id="correspondence_country"
									class="input-select form-control select-country-list"
									title='Please select appropriate Country for Permanent Address'
									alt='Please select appropriate Country for Permanent Address'
									data-validation="length" data-validation-length="1-60"
									data-validation-error-msg="Please select a valid Country for permanent address"
									other_state_txt="permanent_state_other"
									onchange="javascript: populate_states(this.value,'permanent_state', 'span_permanent_state', '6', 'toggle_other_state(\'permanent_state\', \'span_permanent_state_other\')'); toggle_other_state_country(this.value, 'span_permanent_state_other');">
										<option value="102"
											<?php echo ($pi_data->pi_per_country == 102)?"selected":"" ?>>India</option>
								</select>
								</span>
							</div>

							<div class="col-xs-3">
								<span id="span_correspondence_state_other"
									style='display: none;'> <label
									class="cnd-mandatory mandatory_label">Other <span
										class="mandatory_star">*</span>
								</label> <input type="text" class="form-control"
									id="correspondence_state_other"
									name="correspondence_state_other" placeholder="Other State"
									value="<?php echo $pi_data->corre_other_state; ?>"
									title='Please enter appropriate State for Correspondence Address, if country is other than India'
									alt='Please enter appropriate State for Correspondence Address, if country is other than India'
									maxlength="60" />
								</span>

							</div>
						</div>
					</div>
					<!-- correspondence Address END -->

					<div class="panel panel-body mrg20T">
						<div class="row">
							<div class="col-xs-6">
								<label class="mandatory mandatory_label">Mobile Number <span
									class="mandatory_star">*</span>
								</label>
								<div id="MobileAddWrap">
									<div class="row">
										<!-- <div class="col-xs-plus">
                                            <span class="plus_sign">+</span>
                                        </div> -->
										<div class="col-xs-2">
											<input type="text" class="form-control numeric"
												name="mobile_isd[]" placeholder="ISD" maxlength="3"
												value="<?php echo ($pi_data->mob_isd != " ")? $pi_data->mob_isd:"91 ";  ?>"
												data-validation="" data-validation-length="1-4"
												data-validation-error-msg="Please enter valid Mobile ISD"
												title='Please enter contry code for Mobile Number'
												alt='Please enter contry code for Mobile Number'
												autocomplete="Off" />
										</div>
										<div class="col-xs-8 last">
											<input type="text" class="form-control numeric"
												name="mobile_number[]" placeholder="Mobile Number"
												maxlength="10" value="<?php echo $pi_data->mob_no; ?>"
												data-validation="" data-validation-length="8-10"
												data-validation-error-msg="Please enter valid Mobile number"
												title='Please enter Mobile Number. If you provide more than one Mobile Numbers, OTP will be sent on the first mobile number'
												alt='Please enter Mobile Number. If you provide more than one Mobile Numbers, OTP will be sent on the first mobile number'
												autocomplete="Off" />
										</div>
<!-- 										<a href="#" class="btn-add" id="MobileAddBtn" -->
<!-- 											title="Please click to enter additional Mobile Numbers" -->
<!-- 											alt="Please click to enter additional Mobile Numbers">+</a> -->
									</div>
								</div>
							</div>

							<div class="col-xs-6">
								<label class="mandatory mandatory_label">Email <span
									class="mandatory_star">*</span>
								</label>
								<div id="EmailAddWrap">
									<div class="row">
										<div class="col-xs-8 last">
											<input type="text" class="form-control" name="email"
												placeholder="Email" value="<?php echo $pi_data->email; ?>"
												title='Please enter only valid and active email ID. If you provide more than one email ID, verification URL will be sent on the first email ID'
												alt='Please enter only valid and active email ID. If you provide more than one email ID, verification URL will be sent on the first email ID'
												maxlength="254" data-validation="email"
												data-validation-length="3-254"
												data-validation-error-msg="Please enter valid Email"
												autocomplete="Off" />
										</div>

<!-- 										<a href="#" class="btn-add" id="EmailAddBtn" -->
<!-- 											title="Please click to enter additional email IDs" -->
<!-- 											alt="Please click to enter additional email IDs">+</a> -->
									</div>
								</div>
							</div>
						</div>
						<div class="divider"></div>
						<div class="row" id="div_other_details">
							<center>
								<p class="error" id="error4"></p>
							</center>
							<div class="col-xs-3">
								<label>Landline Number</label> <input type="text"
									name="landlineno" id="landlineno" class="form-control"
									value="<?= $pi_data->landlineno?>"
									placeholder="Landline Number"
									title='Please enter valid Landline Number of an individual whose details are provided above'
									alt='Please enter valid Landline Number of an individual whose details are provided above'
									maxlength="9" autocomplete="Off" />
							</div>

							<div class="col-xs-2">
								<label class="mandatory mandatory_label">Nationality <span
									class="mandatory_star">*</span>
								</label> <select class="input-select form-control"
									id="nationality" name="nationality" data-validation="length"
									data-validation-length="1-33"
									data-validation-error-msg="Please enter a valid Nationality"
									title="Please select appropriate Nationality from the dropdown list"
									alt="Please select appropriate Nationality from the dropdown list">
									<option value=""
										<?=( $pi_data->nationality == "")?"selected":"" ?>>Please
										Select</option>
									<option value="Indian"
										<?=( $pi_data->nationality == "Indian")?"selected":"" ?>>Indian</option>
									<option value="Other"
										<?=( $pi_data->nationality == "other")?"selected":"" ?>>Other</option>
								</select>
							</div>
							<!-- <div class="col-xs-3" style='display:none;' id="other_nationality_div">
                                <label class="mandatory mandatory_label">Other Nationality <span class="mandatory_star">*</span>
                                </label>
                                <input type="text" name="other_nationality" id="other_nationality" class="form-control" value="<?= $pi_data->other_nationality; ?>" placeholder="Other Nationality" title="Please enter the Nationality if other than 'Indian'" alt="Please enter the Nationality if other than 'Indian'" maxlength="33" data-validation="" data-validation-length="" data-validation-error-msg="" />
                            </div> -->
						</div>
						<div class="divider"></div>
						<div class="row">
							<div class="col-xs-3" id="religion">
								<label class="mandatory_label">Religion <span
									class="mandatory_star">*</span>
								</label> <select name="pi_religion" id="pi_religion"
									class="input-select form-control"
									title='Please select appropriate Religion from the dropdown list'
									alt='Please select appropriate Religion from the dropdown list'
									data-validation="length" data-validation-length="1-20"
									data-validation-error-msg="Please select a Religion"
									onchange="javascript: toggle_other_religion(this.value, 'span_religion_other');">
									<option value=""
										<?=( $pi_data->pi_religion == "")?"selected":"" ?>>Please select</option>
									<option value="1"
									<?=( $pi_data->pi_religion == 1)?"selected":"" ?>>Buddhist</option>
									<option value="2"
									<?=( $pi_data->pi_religion == 2)?"selected":"" ?>>Christian</option>
									<option value="3"
									<?=( $pi_data->pi_religion == 3)?"selected":"" ?>>Hindu</option>
									<option value="4"
									<?=( $pi_data->pi_religion == 4)?"selected":"" ?>>Islam</option>
									<option value="5"
									<?=( $pi_data->pi_religion == 5)?"selected":"" ?>>Jain</option>
									<option value="6"
									<?=( $pi_data->pi_religion == 6)?"selected":"" ?>>Judaism</option>
									<option value="7"
									<?=( $pi_data->pi_religion == 7)?"selected":"" ?>>Parsi</option>
									<option value="8"
									<?=( $pi_data->pi_religion == 8)?"selected":"" ?>>Sikh</option>
									<option value="10"
									<?=( $pi_data->pi_religion == 10)?"selected":"" ?>>Other</option>
								</select>
							</div>
							<div class="col-xs-4" style='display: none;'
								id="span_religion_other">
								<label class="mandatory_label">Other Religion (if not listed) <span
									class="mandatory_star">*</span>
								</label> <input type="text" name="pi_religion_other"
									id="religion_other" class="form-control"
									value="<?= $pi_data->pi_religion_other; ?>"
									placeholder="Other Religion "
									title='Please enter the Religion if not listed'
									alt='Please enter the Religion if not listed' maxlength="33" />
							</div>
							<div class="col-xs-3">
								<label>Place</label> <input type="text" name="per_place"
									id="per_place" class="form-control"
									value="<?= $pi_data->pi_place; ?>" placeholder="Place"
									maxlength="10" title='Enter valid Place'
									alt='Enter valid Place' autocomplete="Off" />
							</div>
							<div class="col-xs-3">
								<label>Date And Time</label> <input type="text" name="per_date"
									id="per_date" class="form-control"
									value="<?= $pi_data->creation_date; ?>" placeholder="23-03-18"
									maxlength="12" title='Please enter valid date'
									alt='Please enter valid date' autocomplete="Off" />
							</div>
							<!-- <div class="col-xs-2">
                                <label>Time</label>
                                <input type="time" name="per_date" id="per_date" class="form-control" value="" placeholder="23-03-18" maxlength="12" title='Please enter valid date' alt='Please enter valid date' autocomplete="Off" />
                            </div> -->
						</div>
					</div>
					<!-- panel-body END -->
					<div class="bottom_buttons">
						<!-- <div class="div_prev_button">
                            <input type="button" name="previous" id="btn-previous" value="&laquo; Prev" class="btn-submit btn-submit-disabled btn-left" disabled />
                        </div> -->
						<!-- <div class="div_center_buttons">
                            <input type="submit" name="update" id="btn-update" value="Save" class="btn-submit btn-center" title="Click here to save the changes of records selected for editing" alt="Click here to save the changes of records selected for editing" />
                        </div> -->
						<div class="div_next_button" style="text-align: right;">
							<input type="submit" name="next" id="btn-save-next"
								value="Save & Next &raquo;" next_page="beneficiary-details"
								class="btn-submit btn-right a_dashboard_tab"
								title="Click here to save the changes and go to next page"
								alt="Click here to save the changes and go to next page"
								onclick="loadnexttab()" />
						</div>
						<br> <br> <br>
					</div>
				</div>
				<!-- col-xs-12 END -->
			</div>
			<!-- row END -->
			<!-- <div class="row">

                <input type="submit" name="sumbit" value="Submit" class="btn-submit btn-submit-disabled" title="Submit Button will be enabled after completion of compulsory tabs marked with top orange border" alt="Submit Button will be enabled after completion of compulsory tabs marked with top orange border" disabled/> </div> -->
		</form>

	</div>
</div>

<script src="http://ajax.googleapis.com/ajax/libs/jquery/1.4.2/jquery.min.js"></script>
<script type="text/javascript">

$("#chkcorrespondence").click(function() {
	   if($(this).is(":checked")){
		   $('#correspondence_address_line1').val($('#permanent_address_line1').val());
	       $('#correspondence_address_line2').val($('#permanent_address_line2').val());
	       $('#correspondence_address_line3').val($('#permanent_address_line3').val());
	       $('#correspondence_city_village_town').val($('#permanent_city_village_town').val());
	       $('#correspondence_state').val($('#permanent_state').val());
	       $('#correspondence_zipcode').val($('#permanent_zipcode').val());
	       $('#correspondence_country').val($('#permanent_country').val());
	       $('.correspondenceAdd input, .correspondenceAdd select').attr('disabled','disabled');
	       //alert("hi");
	   } else {
	       $('.correspondenceAdd input, .correspondenceAdd select').removeAttr('disabled');
	   }
});

</script>

