<!-- <?php $selected_religion=$pi_data->pi_religion; ?> -->
<option value="" <?=( $selected_rel == "")?"selected":"" ?> >Please select</option>
<option value="1" <?=( $selected_rel == 1)?"selected":"" ?>>Buddhist</option>
<option value="2" <?=( $selected_rel == 2)?"selected":"" ?>>Christian</option>
<option value="3" <?=( $selected_rel == 3)?"selected":"" ?> >Hindu</option>
<option value="4" <?=( $selected_rel == 4)?"selected":"" ?>>Islam</option>
<option value="5" <?=( $selected_rel == 5)?"selected":"" ?>>Jain</option>
<option value="6" <?=( $selected_rel == 6)?"selected":"" ?>>Judaism</option>
<option value="7" <?=( $selected_rel == 7)?"selected":"" ?>>Parsi</option>
<option value="8" <?=( $selected_rel == 8)?"selected":"" ?>>Sikh</option>
<option value="10" <?=( $selected_rel == 10)?"selected":"" ?>>Other</option>

<!-- <?php //include "include/religion.php"; ?> -->
