<?php

	ini_set("display_errors",1);
	error_reporting(E_ALL);
	
	$host = "LOCAL";
	$host = "SERVER";
	
	if($host == "SERVER")
	{
		$dbUser 			= 'taxsave_taxsave';
		$dbPass 			= '{2RGYy]CcFdq';
		$db	 				= 'taxsave_taxsave';
		$wwwroot			= "/home/taxsave/public_html/";
		$newLine			= "\n";
	}
	else
	{
		$dbUser 			= 'root';
		$dbPass 			= 'publish';
		$db	 				= 'b2b';
		$wwwroot	     	= "D:/Dharm/www/Rajan/www.ca.in/";
		$newLine			= "\n";
	}
	$dbHost 			= 'localhost';
	$g_link = mysql_connect( $dbHost, $dbUser, $dbPass);
	mysql_select_db($db, $g_link);	
	$filename = $wwwroot."__CRON/amfi_price.txt";
	$url = "https://www.amfiindia.com/spages/NAVAll.txt?t=".date("dmYHmi")."";	//jsessionid=".trim($_COOKIE['JSESSIONID']);
	//echo filesize($filename);exit;
	/*if(mysql_num_rows(mysql_query("SELECT * FROM amfi_data WHERE is_updated = 0")) > 0 && filesize($filename) > 100)
	{
		echo "dd";
	}
	if(filesize($filename) > 100)
	{*/
		@unlink($filename);
		mysql_query("TRUNCATE TABLE amfi_data");
		$ch = curl_init($url); 
		curl_setopt($ch, CURLOPT_RETURNTRANSFER, 1);
		$amfiData = curl_exec($ch);
		
		$file = fopen($filename, "w+");
		fputs($file, $amfiData);
		fclose($file);
		$importSQL = ' LOAD DATA LOCAL INFILE "'.$wwwroot.'__CRON/amfi_price.txt'.'"
										INTO TABLE amfi_data 
										FIELDS TERMINATED by \';\' 
										LINES TERMINATED BY \''.$newLine.'\' IGNORE 1 LINES;';
		mysql_query($importSQL);
		mysql_query("DELETE FROM amfi_data WHERE ISIN = ''");	
		//$yesterday = (date('d-M-Y',strtotime("-1 days")));			
		//mysql_query("DELETE FROM amfi_data WHERE amfi_update_date = '".$yesterday."'");	
	//}
	
	//exit;
	$mailHeaders  = 'MIME-Version: 1.0' . "\r\n";
	$mailHeaders .= 'Content-type: text/html; charset=iso-8859-1' . "\r\n";
	$mailHeaders .= 'From: Technical Support <technical-support@taxsave.in>' . "\r\n";
	$mailSub = "TAXSAVE - AMFI PRICE Data UPDATE ".date("d/M/Y H:m:i A");

	if(filesize($filename) > 100)
	{		
		if($host == "SERVER")
			include_once("/home/taxsave/public_html/__lib.includes/config.inc.php");
		else
			include_once($wwwroot."__lib.includes/config.inc.php");	
	
		$mutualFund->updatePrice();
		
		mail("support@devmantra.com",$mailSub,"Price Updated into DB with size of - ".filesize($filename),$mailHeaders); 
	}
	else
	{
		mail("support@devmantra.com",$mailSub,"Price NOT Updated into DB with size of - ".filesize($filename),$mailHeaders);
	}
	@unlink($filename);
	exit; 
?>
